morgan
…
ℹ Use `spec()` to retrieve the full column specification for this data.
ℹ Specify the column types or set `show_col_types = FALSE` to quiet this message.

march_madness <- march_madness |>
  filter(round != 0 & round != 68) |>
  mutate(
    ##round = as.factor(round),
    elite_eight = if_else(round <= 8, "elite eight", "not elite eight"),
    elite_eight = as.factor(elite_eight)
  )

march_madness

# A tibble: 960 × 41
    year  seed team      round k_adj_eff k_adj…¹ k_adj…² k_adj…³ b_adj…⁴ b_adj…⁵
   <dbl> <dbl> <chr>     <dbl>     <dbl>   <dbl>   <dbl>   <dbl>   <dbl>   <dbl>
 1  2023     1 Alabama      16      26.9    116.    88.9    72.8    27.6    117.
 2  2023     1 Houston      16      29.9    119.    89.0    63.4    28.3    118.
 3  2023     1 Kansas       32      23.1    115.    91.6    69.2    21.4    114.
 4  2023     1 Purdue       64      24.8    120.    95.2    64.2    25.2    119.
 5  2023     2 Arizona      64      22.9    120.    97.2    72.3    23.9    120.
 6  2023     2 Marquette    32      21.8    119.    97.6    68.3    21.9    119.
 7  2023     2 Texas         8      24.6    117.    92.1    69.1    23.5    116.
 8  2023     2 UCLA         16      27.7    115.    87.3    66.2    25.1    114.
 9  2023     3 Baylor       32      20.0    122.   102.     66.5    22.3    123.
10  2023     3 Gonzaga       8      24.3    124.    99.8    70.0    25.5    125.
# … with 950 more rows, 31 more variables: b_adj_def <dbl>, BARTHAG <dbl>,
#   elite_sos <dbl>, b_adj_tempo <dbl>, two_pt_perc <dbl>, three_pt_perc <dbl>,
#   ft_perc <dbl>, efg_perc <dbl>, ft_rate <dbl>, three_pt_rate <dbl>,
#   assist_perc <dbl>, off_reb_perc <dbl>, def_reb_perc <dbl>,
#   block_perc <dbl>, turnover_perc <dbl>, two_pt_perc_def <dbl>,
#   three_pt_perc_def <dbl>, ft_perc_def <dbl>, efg_perc_defense <dbl>,
#   ft_rate_def <dbl>, three_pt_rate_def <dbl>, op_assist_perc <dbl>, …
…
