Predicting Success in March Madness
…
The median barttorvik adjusted efficiency generally rises as the event progresses through rounds. As the competition progresses, BAE variability likewise reduces. The data contains a significant number of outliers, but this is to be expected given the unpredictable and volatile nature of occurrences throughout the NCAA tournament. However, an overall association can be generally observed: BAE seems to increase as the competition progresses.

# A tibble: 2 × 5
  term        estimate std.error statistic  p.value
  <chr>          <dbl>     <dbl>     <dbl>    <dbl>
1 (Intercept)    6.09     0.526      11.6  5.12e-31
2 b_adj_eff     -0.208    0.0230     -9.05 1.40e-19

\(log(\hat{p} / (1 - \hat{p})) = 6.09 - 0.208 * b\_adj\_eff\)

# A tibble: 192 × 3
   `.pred_elite eight` `.pred_not elite eight` elite_eight    
                 <dbl>                   <dbl> <fct>          
 1              0.293                    0.707 not elite eight
 2              0.313                    0.687 elite eight    
 3              0.115                    0.885 not elite eight
 4              0.0582                   0.942 not elite eight
 5              0.107                    0.893 not elite eight
 6              0.0387                   0.961 not elite eight
 7              0.0400                   0.960 not elite eight
 8              0.0354                   0.965 not elite eight
 9              0.0266                   0.973 not elite eight
10              0.0275                   0.972 not elite eight
# … with 182 more rows
…
